# exclusion list based on observation of filtered pulses from thrs 60 file
52,8
37,31
3,7
33,17
42,25
42,26
21,20
25,32
25,34
31,45
30,38
15,19
44,19
52,12
32,12
58,12
30,34
30,24
30,26
32,31
7,24
37,18
30,22
31,22
31,21
31,23
31,25
41,18
60,26
29,22
29,23
5,22
45,26
7,25
30,23
42,24
28,17
31,20
20,26
22,21
30,20
