#open_file data\ECAL2-2009\x00 -s 1
#fit_data -pa 2 4 0.5 1.5 0 0.2 5 -b 4,2 15,0 6000,10 2.5,0.05 80,0 0.6,0 17,4 -v False True True True True True True -t --output -m differential_evolution
#clear_memory

open_file data\ECAL2-2009\x01 -s 1
fit_data -pa 2 4 0.5 1.5 0 0.2 5 -b 4,2 15,0 6000,10 2.5,0.05 80,0 0.6,0 17,4 -v False True True True True True True -t --output -m differential_evolution
clear_memory

open_file data\ECAL2-2009\x02 -s 1
fit_data -pa 2 4 0.5 1.5 0 0.2 5 -b 4,2 15,0 6000,10 2.5,0.05 80,0 0.6,0 17,4 -v False True True True True True True -t --output -m differential_evolution
clear_memory
#fit_data -f corrected-0.1.csv -pa 2 4 40 1.5 50 0.2 5 -b 4,2 15,0 6000,50 2.5,0.5 80,0 0.6,0 15,4 -v False True True True True True True --output
#clear_memory
#fit_data -f corrected-0.15.csv -pa 2 4 40 1.5 50 0.2 5 -b 4,2 15,0 6000,50 2.5,0.5 80,0 0.6,0 15,4 -v False True True True True True True --output
#clear_memory
#fit_data -f corrected-0.2.csv -pa 2 4 40 1.5 50 0.2 5 -b 4,2 15,0 6000,50 2.5,0.5 80,0 0.6,0 15,4 -v False True True True True True True --output
#clear_memory
#fit_data -f corrected-0.25.csv -pa 2 4 40 1.5 50 0.2 5 -b 4,2 15,0 6000,50 2.5,0.5 80,0 0.6,0 15,4 -v False True True True True True True --output
#clear_memory
#fit_data -pa 2 4 40 1.5 50 0.2 5 -b 4,2 15,0 6000,50 2.5,0.5 80,0 0.6,0 15,4 -v False True True True True True True --output
#clear_memory
#fit_data -pa 2 4 0.5 1.5 0 0.2 5 -b 4,2 15,0 6000,10 2.5,0.05 80,0 0.6,0 17,4 -v False True True True True True True -t --output -m differential_evolution